unicod;pdlreferencia;pdlnl;Tipo;conta1;valorampliacao1;valorreducao1;conta2;valorampliacao2;valorreducao2;data
26247;PROP;873;UA;UA;1467100;0;;;;01/03/2014
26104;PROP;853;CA/IA-50;CA;15000;0;IA;0;15000;02/03/2014
26105;PROP;854;CA/IA-80;IA;849578;0;CA;0;15000;03/03/2014
26201;APCA;855;CA/IA-Demais;CA;10735286;0;IA;0;15000;04/03/2014
